<?xml version="1.0" encoding="UTF-8" standalone="no"?>
<svg
   xmlns:dc="http://purl.org/dc/elements/1.1/"
   xmlns:cc="http://creativecommons.org/ns#"
   xmlns:rdf="http://www.w3.org/1999/02/22-rdf-syntax-ns#"
   xmlns:svg="http://www.w3.org/2000/svg"
   xmlns="http://www.w3.org/2000/svg"
   xmlns:sodipodi="http://sodipodi.sourceforge.net/DTD/sodipodi-0.dtd"
   xmlns:inkscape="http://www.inkscape.org/namespaces/inkscape"
   id="svg8"
   version="1.1"
   viewBox="0 0 92.604164 108.74377"
   height="108.74375mm"
   width="92.604164mm"
   sodipodi:docname="mello.svg"
   inkscape:version="0.92.1 r15371"
   inkscape:export-filename="C:\Users\Ken\Documents\mellowire-web\assets\mello.png"
   inkscape:export-xdpi="88.665138"
   inkscape:export-ydpi="88.665138">
  <sodipodi:namedview
     pagecolor="#ffffff"
     bordercolor="#666666"
     borderopacity="1"
     objecttolerance="10"
     gridtolerance="10"
     guidetolerance="10"
     inkscape:pageopacity="0"
     inkscape:pageshadow="2"
     inkscape:window-width="1538"
     inkscape:window-height="877"
     id="namedview10"
     showgrid="false"
     inkscape:zoom="1.0606739"
     inkscape:cx="152.18957"
     inkscape:cy="291.70599"
     inkscape:window-x="-8"
     inkscape:window-y="-8"
     inkscape:window-maximized="1"
     inkscape:current-layer="g4514"
     fit-margin-top="0"
     fit-margin-left="0"
     fit-margin-right="0"
     fit-margin-bottom="0" />
  <defs
     id="defs2" />
  <metadata
     id="metadata5">
    <rdf:RDF>
      <cc:Work
         rdf:about="">
        <dc:format>image/svg+xml</dc:format>
        <dc:type
           rdf:resource="http://purl.org/dc/dcmitype/StillImage" />
        <dc:title></dc:title>
      </cc:Work>
    </rdf:RDF>
  </metadata>
  <g
     transform="translate(-11.392203,-158.69897)"
     id="layer1">
    <g
       transform="translate(111.99705,92.616478)"
       id="g3701">
      <g
         id="g4514"
         transform="translate(-14.0912,6.8298277)">
        <g
           id="g4499"
           transform="translate(2.9933801,39.911735)">
          <path
             style="fill:#fefefe;stroke-width:0.26458335"
             d="m -89.507027,73.712805 v -54.37188 h 46.302086 46.302086 v 54.37188 54.371875 h -46.302086 -46.302086 z"
             id="path4509"
             inkscape:connector-curvature="0" />
          <path
             style="fill:#c9d0eb;stroke-width:0.26458335"
             d="m -63.048692,126.49718 v -1.32291 h -5.291667 -5.291667 v -1.32292 -1.32292 h -1.322917 -1.322917 v -1.32291 -1.32292 h -3.96875 -3.96875 v -1.32292 -1.32291 h -1.322917 -1.322917 v -5.29167 -5.29167 h -1.322916 -1.322917 V 73.580513 40.507594 h 1.322917 1.322916 v -5.291668 -5.291667 h 1.322917 1.322917 v -1.322916 -1.322917 h 3.96875 3.96875 v -1.322917 -1.322917 h 1.322917 1.322917 v -1.322917 -1.322916 h 5.291667 5.291667 v -1.322917 -1.322917 h 19.843751 19.843751 v 1.322917 1.322917 h 5.291667 5.291667 v 1.322916 1.322917 h 1.322917 1.322917 v 1.322917 1.322917 h 3.9687498 3.9687502 v 1.322917 1.322916 h 1.32291677 1.32291674 v 3.968751 3.96875 H 1.7742283 3.097145 V 72.257597 106.65343 H 1.7742283 0.45131151 v 5.29167 5.29167 H -0.87160523 -2.194522 v 1.32291 1.32292 h -2.6458335 -2.6458334 v 1.32292 1.32291 h -1.3229168 -1.3229163 v 1.32292 1.32292 h -6.614584 -6.614584 v 1.32291 1.32292 h -19.843751 -19.843751 z m 13.229167,-5.29166 v -1.32292 h 1.322917 1.322917 v -1.32292 -1.32291 h 2.645833 2.645834 v -1.32292 -1.32292 h 5.291667 5.291667 v -1.32291 -1.32292 h 1.322916 1.322917 v -2.64583 -2.64584 h 1.322917 1.322917 v -3.96875 -3.968748 h -2.645834 -2.645833 v -1.322916 -1.322917 h 3.96875 3.96875 V 82.840931 69.611763 h -1.322917 -1.322916 v -5.291667 -5.291667 h -1.322917 -1.322917 v -1.322917 -1.322917 h -1.322917 -1.322916 v -1.322917 -1.322917 h -2.645834 -2.645833 v -1.322916 -1.322917 h -5.291667 -5.291667 v -1.322917 -1.322917 h -11.906251 -11.906251 v -1.322916 -1.322917 h 27.781252 27.781252 v -1.322917 -1.322917 h 5.291667 5.2916665 V 41.83051 40.507594 h 1.3229168 1.3229167 v -5.291668 -5.291667 h -3.9687502 -3.9687498 v -1.322916 -1.322917 h -1.322917 -1.322917 v -1.322917 -1.322917 h -5.291667 -5.291667 v -1.322917 -1.322916 h -19.843751 -19.843751 v 1.322916 1.322917 h -5.291667 -5.291667 v 1.322917 1.322917 h -1.322917 -1.322917 v 1.322917 1.322916 h -3.96875 -3.96875 v 5.291667 5.291668 h -1.322917 -1.322917 v 6.614584 6.614583 h 3.968751 3.96875 v -3.96875 -3.96875 h -1.322917 -1.322917 v -1.322917 -1.322917 h 2.645834 2.645833 V 40.507594 37.86176 h 1.322917 1.322917 v 2.645834 2.645833 h 1.322917 1.322916 v 1.322917 1.322917 h -2.645833 -2.645834 v 5.291667 5.291667 h -5.291667 -5.291667 v 17.197918 17.197919 h 7.937501 7.9375 v 1.322916 1.322917 h -7.9375 -7.937501 v 6.614585 6.61458 h 1.322917 1.322917 v 5.29167 5.29167 h 3.96875 3.96875 v 1.32291 1.32292 h 6.614584 6.614584 v 1.32292 1.32291 h 6.614584 6.614583 z m -10.583334,-7.9375 v -1.32292 h -1.322916 -1.322917 v -1.32292 -1.32291 h 1.322917 1.322916 v -6.61459 -6.614581 h -5.291667 -5.291667 v -1.322917 -1.322917 h 6.614584 6.614584 v 7.937505 7.9375 h 1.322917 1.322916 v 1.32291 1.32292 h -1.322916 -1.322917 v 1.32292 1.32291 h -1.322917 -1.322917 z m 2.645834,-2.64584 v -1.32291 h -1.322917 -1.322917 v 1.32291 1.32292 h 1.322917 1.322917 z m 23.812501,-10.58333 v -1.322918 h -1.322917 -1.322916 v -1.322916 -1.322917 h 1.322916 1.322917 v -1.322917 -1.322917 h 1.322917 1.322917 v 1.322917 1.322917 h -1.322917 -1.322917 v 1.322917 1.322916 h 1.322917 1.322917 v 1.322918 1.32292 h -1.322917 -1.322917 z M -84.21536,41.83051 v -1.322916 h 1.322917 1.322916 v 1.322916 1.322917 h -1.322916 -1.322917 z m 5.291667,-5.291667 v -1.322917 h 1.322917 1.322916 V 33.89301 32.570093 h 1.322917 1.322917 v 1.322917 1.322916 h 1.322917 1.322916 v 1.322917 1.322917 h -1.322916 -1.322917 v -1.322917 -1.322917 h -1.322917 -1.322917 v 1.322917 1.322917 h -1.322916 -1.322917 z"
             id="path4507"
             inkscape:connector-curvature="0" />
          <path
             style="fill:#b0b6cd;stroke-width:0.26458335"
             d="m -63.048692,126.49718 v -1.32291 h -5.291667 -5.291667 v -1.32292 -1.32292 h -1.322917 -1.322917 v -1.32291 -1.32292 h -3.96875 -3.96875 v -1.32292 -1.32291 h -1.322917 -1.322917 v -5.29167 -5.29167 h -1.322916 -1.322917 V 73.580513 40.507594 h 1.322917 1.322916 v -5.291668 -5.291667 h 1.322917 1.322917 v -1.322916 -1.322917 h 3.96875 3.96875 v -1.322917 -1.322917 h 1.322917 1.322917 v -1.322917 -1.322916 h 5.291667 5.291667 v -1.322917 -1.322917 h 19.843751 19.843751 v 1.322917 1.322917 h 5.291667 5.291667 v 1.322916 1.322917 h 1.322917 1.322917 v 1.322917 1.322917 h 3.9687498 3.9687502 v 1.322917 1.322916 h 1.32291677 1.32291674 v 3.968751 3.96875 H 1.7742283 3.097145 V 72.257597 106.65343 H 1.7742283 0.45131151 v 5.29167 5.29167 H -0.87160523 -2.194522 v 1.32291 1.32292 h -2.6458335 -2.6458334 v 1.32292 1.32291 h -1.3229168 -1.3229163 v 1.32292 1.32292 h -6.614584 -6.614584 v 1.32291 1.32292 h -19.843751 -19.843751 z m 39.687502,-2.64583 v -1.32292 h 6.614584 6.614584 v -1.32291 -1.32292 h 1.3229163 1.3229168 v -1.32292 -1.32291 h 2.6458334 2.6458335 v -5.29167 -5.29167 h 1.32291677 1.32291674 V 97.393016 88.132598 H -0.87160523 -2.194522 v -1.322917 -1.322917 h 1.32291677 1.32291674 V 61.674262 37.86176 H -0.87160523 -2.194522 v -3.96875 -3.968751 h -3.9687502 -3.9687498 v -1.322916 -1.322917 h -1.322917 -1.322917 v -1.322917 -1.322917 h -5.291667 -5.291667 v -1.322917 -1.322916 h -19.843751 -19.843751 v 1.322916 1.322917 h -5.291667 -5.291667 v 1.322917 1.322917 h -1.322917 -1.322917 v 1.322917 1.322916 h -3.96875 -3.96875 v 5.291667 5.291668 h -1.322917 -1.322917 v 6.614584 6.614583 h 3.968751 3.96875 v -3.96875 -3.96875 h 1.322917 1.322916 v 5.291667 5.291667 h -5.291667 -5.291667 v 17.197918 17.197919 h 7.937501 7.9375 v 1.322916 1.322917 h -7.9375 -7.937501 v 6.614585 6.61458 h 1.322917 1.322917 v 5.29167 5.29167 h 3.96875 3.96875 v 1.32291 1.32292 h 1.322917 1.322917 v 1.32292 1.32291 h 5.291667 5.291667 v 1.32292 1.32292 h 19.843751 19.843751 z m -37.041669,-10.58333 v -1.32292 h -1.322916 -1.322917 v -1.32292 -1.32291 h 1.322917 1.322916 v -6.61459 -6.614581 h -5.291667 -5.291667 v -1.322917 -1.322917 h 6.614584 6.614584 v 7.937505 7.9375 h 1.322917 1.322916 v 1.32291 1.32292 h -1.322916 -1.322917 v 1.32292 1.32291 h -1.322917 -1.322917 z m 2.645834,-2.64584 v -1.32291 h -1.322917 -1.322917 v 1.32291 1.32292 h 1.322917 1.322917 z m 23.812501,-10.58333 v -1.322918 h -1.322917 -1.322916 v -1.322916 -1.322917 h 1.322916 1.322917 v -1.322917 -1.322917 h 1.322917 1.322917 v 1.322917 1.322917 h 7.9375 7.937501 v -1.322917 -1.322917 h 3.96875 3.9687501 v -1.322917 -1.322916 h 1.3229167 1.3229167 v -1.322917 -1.322917 h 1.3229168 1.3229167 v 1.322917 1.322917 h -1.3229167 -1.3229168 v 1.322916 1.322917 h -1.3229167 -1.3229167 v 1.322917 1.322917 h -3.9687501 -3.96875 v 1.322917 1.322916 h -7.937501 -7.9375 v 1.322918 1.32292 h -1.322917 -1.322917 z m 2.645834,-2.645834 v -1.322917 h -1.322917 -1.322917 v 1.322917 1.322916 h 1.322917 1.322917 z M -76.27786,41.83051 v -3.96875 h -1.322916 -1.322917 v -1.322917 -1.322917 h 1.322917 1.322916 V 33.89301 32.570093 h 1.322917 1.322917 v 1.322917 1.322916 h 1.322917 1.322916 v 1.322917 1.322917 h -1.322916 -1.322917 v 3.96875 3.968751 h -1.322917 -1.322917 z m 2.645834,-5.291667 v -1.322917 h -1.322917 -1.322917 v 1.322917 1.322917 h 1.322917 1.322917 z"
             id="path4505"
             inkscape:connector-curvature="0" />
          <path
             style="fill:#868b9d;stroke-width:0.26458335"
             d="m -63.048692,126.49718 v -1.32291 h -5.291667 -5.291667 v -1.32292 -1.32292 h -1.322917 -1.322917 v -1.32291 -1.32292 h -3.96875 -3.96875 v -1.32292 -1.32291 h -1.322917 -1.322917 v -5.29167 -5.29167 h -1.322916 -1.322917 V 73.580513 40.507594 h 1.322917 1.322916 v -5.291668 -5.291667 h 1.322917 1.322917 v -1.322916 -1.322917 h 3.96875 3.96875 v -1.322917 -1.322917 h 1.322917 1.322917 v -1.322917 -1.322916 h 5.291667 5.291667 v -1.322917 -1.322917 h 19.843751 19.843751 v 1.322917 1.322917 h 5.291667 5.291667 v 1.322916 1.322917 h 1.322917 1.322917 v 1.322917 1.322917 h 3.9687498 3.9687502 v 1.322917 1.322916 h 1.32291677 1.32291674 v 3.968751 3.96875 H 1.7742283 3.097145 V 72.257597 106.65343 H 1.7742283 0.45131151 v 5.29167 5.29167 H -0.87160523 -2.194522 v 1.32291 1.32292 h -2.6458335 -2.6458334 v 1.32292 1.32291 h -1.3229168 -1.3229163 v 1.32292 1.32292 h -6.614584 -6.614584 v 1.32291 1.32292 h -19.843751 -19.843751 z m 39.687502,-2.64583 v -1.32292 h 6.614584 6.614584 v -1.32291 -1.32292 h 1.3229163 1.3229168 v -1.32292 -1.32291 h 2.6458334 2.6458335 v -5.29167 -5.29167 h 1.32291677 1.32291674 V 97.393016 88.132598 H -0.87160523 -2.194522 v -1.322917 -1.322917 h 1.32291677 1.32291674 V 61.674262 37.86176 H -0.87160523 -2.194522 v -3.96875 -3.968751 h -3.9687502 -3.9687498 v -1.322916 -1.322917 h -1.322917 -1.322917 v -1.322917 -1.322917 h -5.291667 -5.291667 v -1.322917 -1.322916 h -19.843751 -19.843751 v 1.322916 1.322917 h -5.291667 -5.291667 v 1.322917 1.322917 h -1.322917 -1.322917 v 1.322917 1.322916 h -3.96875 -3.96875 v 5.291667 5.291668 h -1.322917 -1.322917 v 33.072919 33.072917 h 1.322917 1.322917 v 5.29167 5.29167 h 3.96875 3.96875 v 1.32291 1.32292 h 1.322917 1.322917 v 1.32292 1.32291 h 5.291667 5.291667 v 1.32292 1.32292 h 19.843751 19.843751 z m 0,-26.458334 v -1.322917 h 3.96875 3.968751 v -1.322917 -1.322917 h 3.96875 3.9687501 v -1.322917 -1.322916 h 1.3229167 1.3229167 v -1.322917 -1.322917 h 1.3229168 1.3229167 v 1.322917 1.322917 h -1.3229167 -1.3229168 v 1.322916 1.322917 h -1.3229167 -1.3229167 v 1.322917 1.322917 h -3.9687501 -3.96875 v 1.322917 1.322916 h -3.968751 -3.96875 z M -76.27786,44.476344 v -1.322917 h 1.322917 1.322917 v 1.322917 1.322917 h -1.322917 -1.322917 z"
             id="path4503"
             inkscape:connector-curvature="0" />
          <path
             style="fill:#57838f;stroke-width:0.26458335"
             d="m -63.048692,126.49718 v -1.32291 h -5.291667 -5.291667 v -1.32292 -1.32292 h -1.322917 -1.322917 v -1.32291 -1.32292 h -3.96875 -3.96875 v -1.32292 -1.32291 h -1.322917 -1.322917 v -5.29167 -5.29167 h -1.322916 -1.322917 V 73.580513 40.507594 h 1.322917 1.322916 v -5.291668 -5.291667 h 1.322917 1.322917 v -1.322916 -1.322917 h 3.96875 3.96875 v -1.322917 -1.322917 h 1.322917 1.322917 v -1.322917 -1.322916 h 5.291667 5.291667 v -1.322917 -1.322917 h 19.843751 19.843751 v 1.322917 1.322917 h 5.291667 5.291667 v 1.322916 1.322917 h 1.322917 1.322917 v 1.322917 1.322917 h 3.9687498 3.9687502 v 1.322917 1.322916 h 1.32291677 1.32291674 v 3.968751 3.96875 H 1.7742283 3.097145 V 72.257597 106.65343 H 1.7742283 0.45131151 v 5.29167 5.29167 H -0.87160523 -2.194522 v 1.32291 1.32292 h -2.6458335 -2.6458334 v 1.32292 1.32291 h -1.3229168 -1.3229163 v 1.32292 1.32292 h -6.614584 -6.614584 v 1.32291 1.32292 h -19.843751 -19.843751 z m 39.687502,-2.64583 v -1.32292 h 6.614584 6.614584 v -1.32291 -1.32292 h 1.3229163 1.3229168 v -1.32292 -1.32291 h 2.6458334 2.6458335 v -5.29167 -5.29167 h 1.32291677 1.32291674 V 72.257597 37.86176 H -0.87160523 -2.194522 v -3.96875 -3.968751 h -3.9687502 -3.9687498 v -1.322916 -1.322917 h -1.322917 -1.322917 v -1.322917 -1.322917 h -5.291667 -5.291667 v -1.322917 -1.322916 h -19.843751 -19.843751 v 1.322916 1.322917 h -5.291667 -5.291667 v 1.322917 1.322917 h -1.322917 -1.322917 v 1.322917 1.322916 h -3.96875 -3.96875 v 5.291667 5.291668 h -1.322917 -1.322917 v 33.072919 33.072917 h 1.322917 1.322917 v 5.29167 5.29167 h 3.96875 3.96875 v 1.32291 1.32292 h 1.322917 1.322917 v 1.32292 1.32291 h 5.291667 5.291667 v 1.32292 1.32292 h 19.843751 19.843751 z"
             id="path4501"
             inkscape:connector-curvature="0" />
        </g>
      </g>
    </g>
  </g>
</svg>
